module example.com/m/v2

go 1.20

require (
	fyne.io/fyne/v2 v2.3.4
	github.com/phpdave11/gofpdf v1.4.2
	go.mongodb.org/mongo-driver v1.11.6
)

require (
	fyne.io/systray v1.10.1-0.20230403195833-7dc3c09283d6 // indirect
	github.com/davecgh/go-spew v1.1.1 // indirect
	github.com/fredbi/uri v0.1.0 // indirect
	github.com/fsnotify/fsnotify v1.5.4 // indirect
	github.com/fyne-io/gl-js v0.0.0-20220119005834-d2da28d9ccfe // indirect
	github.com/fyne-io/glfw-js v0.0.0-20220120001248-ee7290d23504 // indirect
	github.com/fyne-io/image v0.0.0-20220602074514-4956b0afb3d2 // indirect
	github.com/go-gl/gl v0.0.0-20211210172815-726fda9656d6 // indirect
	github.com/go-gl/glfw/v3.3/glfw v0.0.0-20221017161538-93cebf72946b // indirect
	github.com/go-text/typesetting v0.0.0-20230405155246-bf9c697c6e16 // indirect
	github.com/godbus/dbus/v5 v5.1.0 // indirect
	github.com/goki/freetype v0.0.0-20220119013949-7a161fd3728c // indirect
	github.com/golang/snappy v0.0.1 // indirect
	github.com/gopherjs/gopherjs v1.17.2 // indirect
	github.com/jsummers/gobmp v0.0.0-20151104160322-e2ba15ffa76e // indirect
	github.com/klauspost/compress v1.13.6 // indirect
	github.com/montanaflynn/stats v0.0.0-20171201202039-1bf9dbcd8cbe // indirect
	github.com/pkg/errors v0.9.1 // indirect
	github.com/pmezard/go-difflib v1.0.0 // indirect
	github.com/srwiley/oksvg v0.0.0-20220731023508-a61f04f16b76 // indirect
	github.com/srwiley/rasterx v0.0.0-20210519020934-456a8d69b780 // indirect
	github.com/stretchr/testify v1.8.0 // indirect
	github.com/tevino/abool v1.2.0 // indirect
	github.com/xdg-go/pbkdf2 v1.0.0 // indirect
	github.com/xdg-go/scram v1.1.1 // indirect
	github.com/xdg-go/stringprep v1.0.3 // indirect
	github.com/youmark/pkcs8 v0.0.0-20181117223130-1be2e3e5546d // indirect
	github.com/yuin/goldmark v1.4.13 // indirect
	golang.org/x/crypto v0.0.0-20220622213112-05595931fe9d // indirect
	golang.org/x/image v0.3.0 // indirect
	golang.org/x/mobile v0.0.0-20211207041440-4e6c2922fdee // indirect
	golang.org/x/net v0.0.0-20220722155237-a158d28d115b // indirect
	golang.org/x/sync v0.0.0-20220722155255-886fb9371eb4 // indirect
	golang.org/x/sys v0.0.0-20220722155257-8c9f86f7a55f // indirect
	golang.org/x/text v0.6.0 // indirect
	gopkg.in/yaml.v3 v3.0.1 // indirect
	honnef.co/go/js/dom v0.0.0-20210725211120-f030747120f2 // indirect
)
